{
    "prepare_queue": {
        "installed": [],
        "uninstalled": []
    },
    "config_munge": {
        "files": {
            "config.xml": {
                "parents": {
                    "/*": [
                        {
                            "xml": "<feature name=\"Console\"><param name=\"wp-package\" value=\"DebugConsole\" /></feature>",
                            "count": 1
                        },
                        {
                            "xml": "<feature name=\"Device\"><param name=\"wp-package\" value=\"Device\" /></feature>",
                            "count": 1
                        }
                    ]
                }
            },
            "Properties/WMAppManifest.xml": {
                "parents": {
                    "/Deployment/App/Capabilities": [
                        {
                            "xml": "<Capability Name=\"ID_CAP_IDENTITY_DEVICE\" />",
                            "count": 1
                        }
                    ]
                }
            }
        }
    },
    "installed_plugins": {
        "com.ionic.keyboard": {
            "PACKAGE_NAME": "{9BD45BC6-5139-4EFC-B0F3-727E9A16BD08}"
        },
        "org.apache.cordova.console": {
            "PACKAGE_NAME": "{9BD45BC6-5139-4EFC-B0F3-727E9A16BD08}"
        },
        "org.apache.cordova.device": {
            "PACKAGE_NAME": "{9BD45BC6-5139-4EFC-B0F3-727E9A16BD08}"
        }
    },
    "dependent_plugins": {}
}